{
    "data": {
        "content": [
            {
                "id": 0,
                "typeBusiness": "카페",
                "src": "https://i.esdrop.com/d/wvQH6SsNdX.jpg",
                "logo": "https://i.esdrop.com/d/XWNL8gBEYg.png",
                "number": "210129-ZDR3U3P0",
                "estimateType": "BRAND_AND_STORE",
                "matchingRequestId": 733,
                "readYn": "N",
                "estimatedInitialInvestmentCost": 69900000,
                "franchiseBrandName": "봉구통닭",
                "brokerageStoreAddress": "서울 서초구 서초동",
                "floor": 5,
                "wholeOfFloor": 10,
                "exclusiveAreaPy": 29.0,
                "premium": 20000000,
                "deposit": 60000000,
                "expectationProfit": 24000000
            },
            {
                "id": 1,
                "src": "https://i.esdrop.com/d/uAquE6HWQI.jpg",
                "logo": "https://i.esdrop.com/d/lY2cORr7bp.png",
                "typeBusiness": "카페",
                "number": "210129-BI2TBH19",
                "estimateType": "BRAND_AND_STORE",
                "matchingRequestId": 733,
                "readYn": "N",
                "estimatedInitialInvestmentCost": 79500000,
                "franchiseBrandName": "제주둘레국수",
                "brokerageStoreAddress": "서울 서초구 서초동",
                "floor": 4,
                "wholeOfFloor": 6,
                "exclusiveAreaPy": 29.0,
                "premium": 10000000,
                "deposit": 80000000,
                "expectationProfit": 27500000
            },
            {
                "id": 2,
                "src": "https://i.esdrop.com/d/wvQH6SsNdX.jpg",
                "logo": "https://i.esdrop.com/d/HuKdINktzd.jpg",
                "typeBusiness": "카페",
                "number": "210129-TXTS19W9",
                "estimateType": "BRAND_AND_STORE",
                "matchingRequestId": 733,
                "readYn": "N",
                "estimatedInitialInvestmentCost": 79500000,
                "franchiseBrandName": "치킨투어237",
                "brokerageStoreAddress": "서울 서초구 서초동",
                "floor": 7,
                "wholeOfFloor": 9,
                "exclusiveAreaPy": 29.0,
                "premium": 20000000,
                "deposit": 60000000,
                "expectationProfit": 20000000
            },
            {
                "id": 3,
                "src": "https://i.esdrop.com/d/OTXHjHfHvt.jpg",
                "logo": "https://i.esdrop.com/d/a2jXt3bxlQ.jpeg",
                "typeBusiness": "카페",
                "number": "210129-QLL20B72",
                "estimateType": "BRAND_AND_STORE",
                "matchingRequestId": 733,
                "readYn": "N",
                "estimatedInitialInvestmentCost": 81000000,
                "franchiseBrandName": "백곱식당",
                "brokerageStoreAddress": "서울 서초구 서초동",
                "floor": 3,
                "wholeOfFloor": 8,
                "exclusiveAreaPy": 29.0,
                "premium": 30000000,
                "deposit": 70000000,
                "expectationProfit": 24000000
            }
        ],
        "new_content": [
            {
                "id": 4,
                "src": "https://i.esdrop.com/d/wvQH6SsNdX.jpg",
                "logo": "https://i.esdrop.com/d/HuKdINktzd.jpg",
                "typeBusiness": "음식점",
                "number": "210129-TXTS19W9",
                "estimateType": "BRAND_AND_STORE",
                "matchingRequestId": 733,
                "readYn": "N",
                "estimatedInitialInvestmentCost": 79500000,
                "franchiseBrandName": "굽네치킨",
                "brokerageStoreAddress": "서울 송파구 잠실",
                "floor": 2,
                "wholeOfFloor": 9,
                "exclusiveAreaPy": 29.0,
                "premium": 20000000,
                "deposit": 60000000,
                "expectationProfit": 20000000
            },
            {
                "id": 5,
                "src": "https://i.esdrop.com/d/wvQH6SsNdX.jpg",
                "logo": "https://i.esdrop.com/d/HuKdINktzd.jpg",
                "typeBusiness": "음식점",
                "number": "210129-TXTS19W9",
                "estimateType": "BRAND_AND_STORE",
                "matchingRequestId": 733,
                "readYn": "N",
                "estimatedInitialInvestmentCost": 79500000,
                "franchiseBrandName": "굽네치킨",
                "brokerageStoreAddress": "서울 송파구 잠실",
                "floor": 2,
                "wholeOfFloor": 9,
                "exclusiveAreaPy": 29.0,
                "premium": 20000000,
                "deposit": 60000000,
                "expectationProfit": 20000000
            },
            {
                "id": 6,
                "src": "https://i.esdrop.com/d/wvQH6SsNdX.jpg",
                "logo": "https://i.esdrop.com/d/HuKdINktzd.jpg",
                "typeBusiness": "음식점",
                "number": "210129-TXTS19W9",
                "estimateType": "BRAND_AND_STORE",
                "matchingRequestId": 733,
                "readYn": "N",
                "estimatedInitialInvestmentCost": 79500000,
                "franchiseBrandName": "굽네치킨",
                "brokerageStoreAddress": "서울 송파구 잠실",
                "floor": 2,
                "wholeOfFloor": 9,
                "exclusiveAreaPy": 29.0,
                "premium": 20000000,
                "deposit": 60000000,
                "expectationProfit": 20000000
            }
        ],
        "pageable": {
            "sort": {
                "sorted": false,
                "unsorted": true,
                "empty": true
            },
            "offset": 0,
            "pageNumber": 0,
            "pageSize": 5,
            "paged": true,
            "unpaged": false
        },
        "totalPages": 3,
        "totalElements": 11,
        "last": false,
        "sort": { "sorted": false, "unsorted": true, "empty": true },
        "size": 5,
        "number": 0,
        "numberOfElements": 5,
        "first": true,
        "empty": false
    },
    "exception": {
        "code": "0000",
        "httpStatus": "OK",
        "description": "성공",
        "message": null
    },
    "requestId": null
}
